<svg viewBox="0 0 100 100"  xmlns="http://www.w3.org/2000/svg" aria-hidden="true">
  <g transform="translate(0 59)">
    <path d="m21.9 14.8c-2.4-.5-5.3-1.3-7.7-3.5-5.5-4.9-7.2-13-11-10.9-3.9 2.1-3.8 15.2 8.4 19.2 4.2 1.4 8 1.4 11.1 1.3.8 0 7.7-.7 10.1-4.1s.7-4.3-.1-4.7c-.9-.5-7.4 3.3-10.8 2.7z" fill="#ffab19" stroke="#001026" stroke-linecap="round" stroke-linejoin="round" stroke-width="1.2"/>
    <path d="m3.8.6c-2 .6-3 4.8-2 8.3s2.6 5.3 3.9 6.6c-.2-.7-.6-2.9 1.1-4.2 2.1-1.7 5.8-.8 5.8-.8s-3.1-3.8-4.7-6.5c-1.6-2.3-2.1-3.8-4.1-3.4z" fill="#fff"/>
  </g>
  <path d="m37.7 81.5c-1.8 1.2-8 5.6-15.9 8.1l-.4.1c-.4.1-.6.6-.4 1 1.7 2.4 4.8 7.2-.7 8.9-5.3 1.7-15.2-12.4-11-16.1 1.9-1.4 3.6-.7 4.5-.3.5.2 1 .2 1.5.1 1.2-.4 3.4-1.2 5.1-2.1 4.3-2.2 5.3-3.1 7.3-4.6s6.6-5.2 10.3-2c3.2 2.7 1.4 5.7-.3 6.9z" fill="#ffab19" stroke="#001026" stroke-linecap="round" stroke-linejoin="round" stroke-width="1.2"/>
  <path d="m53.6 60.7c.5.4 6.6 7.6 8.6 5.8 2.4-2.1 5.7-6.2 9.3-2.9s-3.2 8.9-6.1 10.4c-6.9 3.1-12.5-2.8-13.7-4.4s-3.3-4.3-3.3-6.9c.1-2.8 3.5-3.5 5.2-2z" fill="#ffab19" stroke="#001026" stroke-linecap="round" stroke-linejoin="round" stroke-width="1.2"/>
  <g transform="translate(28 57)">
    <path d="m18.2 19.7c1.2-.9 2.4-2.4 4-4.7 1.3-1.9 2.7-5.6 2.7-5.6.9-2.5 1.5-7.3-1.8-7.2-2.2.1-4.2-.2-7.6-.7-6-1.2-7.1-2-9.6 2.1-2.7 4.8-9.6 8.3-1.1 16.6 0 0 4.9 3.8 10.8 9.6 4 3.9 10.3 9.5 12.5 11.4.5.4 1.1.6 1.7.7 9.7.9 16.9-.1 16.9-4.4 0-7.2-14.3-4.7-14.3-4.7s-4.6-3.9-6.7-5.8z" fill="#ffab19" stroke="#001026" stroke-linecap="round" stroke-linejoin="round" stroke-width="1.2"/>
    <path d="m22.6 13s1.9-2.5-2.4-5.2c-4.5-2.9-6.2.3-8 2.7-2 3.1 0 4.6 2 6.4 1.6 1.5 3.1 2.7 3.1 2.7s3.1-2.1 5.3-6.6z" fill="#fff"/>
  </g>
  <path d="m30.2 68.4c2.2 2.8 5.6 6.3 1.3 9.2-5.9 3.3-10.8-6.7-11.8-10.2-.9-3.1 1.7-5.1 3.9-6.8 4.3-3.1 7.9-5.9 11.9-4.4 5 1.8 1.4 5.8-1.1 7.6-1.5 1.1-3 2.3-4.1 3-.3.5-.4 1.1-.1 1.6z" fill="#ffab19" stroke="#001026" stroke-linecap="round" stroke-linejoin="round" stroke-width="1.2"/>
  <g transform="translate(14)">
    <path d="m39.1 9c-2.3-.4-4.7-.6-7.5-.4-4.7.2-9.2 1.9-9.2 1.9l-12.1-7.9c-.4-.2-.9.1-.8.5l2.1 17.9c.6-.8-10.6 12.8-3.5 24.2s22.2 16.5 41 12.8 23.2-14.5 22-20.2-8.3-7.8-8.3-7.8-.1-4.5-3.3-10c-1.9-3.3-8.3-8-8.3-8l-2.6-10.7c-.1-.4-.6-.5-.9-.3z" fill="#ffab19" stroke="#001026" stroke-width="1.2"/>
    <path d="m62.5 30.4s6.9 1.8 8.1 7.5-3.6 16-22.2 19.6c-24.2 5-35.7-9.4-29-20 6.7-10.7 18.2-1.6 26.6-2.2 7.2-.5 8-6.8 16.5-4.9z" fill="#fff"/>
    <g stroke="#001026" stroke-linecap="round" stroke-linejoin="round" stroke-width="1.2">
      <path d="m31 41.1c0-.4.4-.7.8-.6 1.9.7 7.3 2.3 13.3 2.7 5.4.3 8.6 0 10.1-.3.5-.1.9.4.7.9-.9 2.7-4.7 10.2-15.2 9.6-9.1-1-10-7.4-9.7-12.3z" fill="#fff"/>
      <path d="m69 35.4s7.2-.1 11.9-3.9"/>
      <path d="m69.4 41.3s3.9 1.9 10.2 1.4"/>
      <path d="m45.6 32.7c2.1 0 4.3.2 4.4.9.1 1.4-1.4 4.2-3 4.3-1.8.2-6-2.3-6-3.9-.1-1.2 2.6-1.3 4.6-1.3z" fill="#001026"/>
      <path d="m.6 31.2s8.6 2.8 12.1 5.9"/>
      <path d="m1.3 41.2s7.4 1.1 11.7-.6"/>
    </g>
    <g transform="translate(44 15)">
      <path d="m13.4 6c2.9 4.5 3 9.6.2 11.4s-7.4-.3-10.4-4.8c-2.9-4.5-3-9.6-.2-11.4 2.8-1.9 7.5.3 10.4 4.8z" fill="#fff" stroke="#001026" stroke-linecap="round" stroke-linejoin="round" stroke-width="1.2"/>
      <path d="m13 11.7c0 1.1-.8 2-1.8 2s-1.8-.9-1.8-2 .8-2 1.8-2 1.8.9 1.8 2" fill="#001026"/>
    </g>
    <g transform="translate(19 18)">
      <path d="m13.6 5.8c3 4.4 2.8 9.8.1 11.7-3.3 1.9-7.7.5-10.7-3.9-3.1-4.4-3.3-10.1-.2-12.3 3.1-2.3 7.8.1 10.8 4.5z" fill="#fff" stroke="#001026" stroke-linecap="round" stroke-linejoin="round" stroke-width="1.2"/>
      <path d="m13 11.6c0 1.1-.8 2-1.8 2s-1.8-.9-1.8-2 .8-2 1.8-2c1 .1 1.8.9 1.8 2" fill="#001026"/>
    </g>
  </g>
</svg>
